{
  "$schema": "http://json.schemastore.org/sarif-1.0.0",
  "version": "1.0.0",
  "runs": [
    {
      "tool": {
        "name": "Compilador de Microsoft (R) Visual C#",
        "version": "4.0.0.0",
        "fileVersion": "4.0.0-6.21526.21 (c7d6f9fa)",
        "semanticVersion": "4.0.0",
        "language": "es-ES"
      },
      "results": [
        {
          "ruleId": "S2971",
          "level": "warning",
          "message": "Drop 'Where' and move the condition into the 'FirstOrDefault'.",
          "locations": [
            {
              "resultFile": {
                "uri": "file:///C:/Users/dubam/Documents/Repositorios/Figorifico/BLL/Report/ReportProductDetail.cs",
                "region": {
                  "startLine": 39,
                  "startColumn": 25,
                  "endLine": 39,
                  "endColumn": 30
                }
              }
            }
          ],
          "properties": {
            "warningLevel": 1
          }
        },
        {
          "ruleId": "S3267",
          "level": "warning",
          "message": "Loop should be simplified by calling Select(invoiceDetail => invoiceDetail.Product))",
          "locations": [
            {
              "resultFile": {
                "uri": "file:///C:/Users/dubam/Documents/Repositorios/Figorifico/BLL/Report/ReportService.cs",
                "region": {
                  "startLine": 35,
                  "startColumn": 55,
                  "endLine": 35,
                  "endColumn": 77
                }
              }
            }
          ],
          "properties": {
            "warningLevel": 1
          }
        },
        {
          "ruleId": "S1168",
          "level": "warning",
          "message": "Return an empty collection instead of null.",
          "locations": [
            {
              "resultFile": {
                "uri": "file:///C:/Users/dubam/Documents/Repositorios/Figorifico/BLL/Report/ReportService.cs",
                "region": {
                  "startLine": 46,
                  "startColumn": 33,
                  "endLine": 46,
                  "endColumn": 45
                }
              }
            }
          ],
          "properties": {
            "warningLevel": 1
          }
        },
        {
          "ruleId": "S2971",
          "level": "warning",
          "message": "Drop 'Where' and move the condition into the 'FirstOrDefault'.",
          "locations": [
            {
              "resultFile": {
                "uri": "file:///C:/Users/dubam/Documents/Repositorios/Figorifico/BLL/Report/ReportService.cs",
                "region": {
                  "startLine": 72,
                  "startColumn": 41,
                  "endLine": 72,
                  "endColumn": 46
                }
              }
            }
          ],
          "properties": {
            "warningLevel": 1
          }
        },
        {
          "ruleId": "S1168",
          "level": "warning",
          "message": "Return an empty collection instead of null.",
          "locations": [
            {
              "resultFile": {
                "uri": "file:///C:/Users/dubam/Documents/Repositorios/Figorifico/BLL/Report/ReportService.cs",
                "region": {
                  "startLine": 67,
                  "startColumn": 32,
                  "endLine": 67,
                  "endColumn": 44
                }
              }
            }
          ],
          "properties": {
            "warningLevel": 1
          }
        },
        {
          "ruleId": "S2971",
          "level": "warning",
          "message": "Drop 'Where' and move the condition into the 'FirstOrDefault'.",
          "locations": [
            {
              "resultFile": {
                "uri": "file:///C:/Users/dubam/Documents/Repositorios/Figorifico/BLL/Report/ReportClientDetail.cs",
                "region": {
                  "startLine": 40,
                  "startColumn": 32,
                  "endLine": 40,
                  "endColumn": 37
                }
              }
            }
          ],
          "properties": {
            "warningLevel": 1
          }
        },
        {
          "ruleId": "S2971",
          "level": "warning",
          "message": "Drop 'Where' and move the condition into the 'FirstOrDefault'.",
          "locations": [
            {
              "resultFile": {
                "uri": "file:///C:/Users/dubam/Documents/Repositorios/Figorifico/BLL/Report/ReportService.cs",
                "region": {
                  "startLine": 81,
                  "startColumn": 22,
                  "endLine": 81,
                  "endColumn": 27
                }
              }
            }
          ],
          "properties": {
            "warningLevel": 1
          }
        },
        {
          "ruleId": "S3776",
          "level": "warning",
          "message": "Refactor this method to reduce its Cognitive Complexity from 19 to the 15 allowed.",
          "locations": [
            {
              "resultFile": {
                "uri": "file:///C:/Users/dubam/Documents/Repositorios/Figorifico/BLL/InvoiceService.cs",
                "region": {
                  "startLine": 54,
                  "startColumn": 36,
                  "endLine": 54,
                  "endColumn": 43
                }
              }
            }
          ],
          "relatedLocations": [
            {
              "physicalLocation": {
                "uri": "file:///C:/Users/dubam/Documents/Repositorios/Figorifico/BLL/InvoiceService.cs",
                "region": {
                  "startLine": 62,
                  "startColumn": 21,
                  "endLine": 62,
                  "endColumn": 28
                }
              }
            },
            {
              "physicalLocation": {
                "uri": "file:///C:/Users/dubam/Documents/Repositorios/Figorifico/BLL/InvoiceService.cs",
                "region": {
                  "startLine": 64,
                  "startColumn": 25,
                  "endLine": 64,
                  "endColumn": 32
                }
              }
            },
            {
              "physicalLocation": {
                "uri": "file:///C:/Users/dubam/Documents/Repositorios/Figorifico/BLL/InvoiceService.cs",
                "region": {
                  "startLine": 66,
                  "startColumn": 29,
                  "endLine": 66,
                  "endColumn": 31
                }
              }
            },
            {
              "physicalLocation": {
                "uri": "file:///C:/Users/dubam/Documents/Repositorios/Figorifico/BLL/InvoiceService.cs",
                "region": {
                  "startLine": 74,
                  "startColumn": 21,
                  "endLine": 74,
                  "endColumn": 28
                }
              }
            },
            {
              "physicalLocation": {
                "uri": "file:///C:/Users/dubam/Documents/Repositorios/Figorifico/BLL/InvoiceService.cs",
                "region": {
                  "startLine": 76,
                  "startColumn": 25,
                  "endLine": 76,
                  "endColumn": 32
                }
              }
            },
            {
              "physicalLocation": {
                "uri": "file:///C:/Users/dubam/Documents/Repositorios/Figorifico/BLL/InvoiceService.cs",
                "region": {
                  "startLine": 78,
                  "startColumn": 29,
                  "endLine": 78,
                  "endColumn": 31
                }
              }
            },
            {
              "physicalLocation": {
                "uri": "file:///C:/Users/dubam/Documents/Repositorios/Figorifico/BLL/InvoiceService.cs",
                "region": {
                  "startLine": 86,
                  "startColumn": 21,
                  "endLine": 86,
                  "endColumn": 28
                }
              }
            },
            {
              "physicalLocation": {
                "uri": "file:///C:/Users/dubam/Documents/Repositorios/Figorifico/BLL/InvoiceService.cs",
                "region": {
                  "startLine": 88,
                  "startColumn": 25,
                  "endLine": 88,
                  "endColumn": 32
                }
              }
            },
            {
              "physicalLocation": {
                "uri": "file:///C:/Users/dubam/Documents/Repositorios/Figorifico/BLL/InvoiceService.cs",
                "region": {
                  "startLine": 90,
                  "startColumn": 29,
                  "endLine": 90,
                  "endColumn": 31
                }
              }
            },
            {
              "physicalLocation": {
                "uri": "file:///C:/Users/dubam/Documents/Repositorios/Figorifico/BLL/InvoiceService.cs",
                "region": {
                  "startLine": 100,
                  "startColumn": 15,
                  "endLine": 100,
                  "endColumn": 20
                }
              }
            }
          ],
          "properties": {
            "warningLevel": 1,
            "customProperties": {
              "0": "+1",
              "1": "+2 (incl 1 for nesting)",
              "2": "+3 (incl 2 for nesting)",
              "3": "+1",
              "4": "+2 (incl 1 for nesting)",
              "5": "+3 (incl 2 for nesting)",
              "6": "+1",
              "7": "+2 (incl 1 for nesting)",
              "8": "+3 (incl 2 for nesting)",
              "9": "+1"
            }
          }
        },
        {
          "ruleId": "CA1822",
          "level": "note",
          "message": "Member 'CreateReportProductDetail' does not access instance data and can be marked as static",
          "locations": [
            {
              "resultFile": {
                "uri": "file:///C:/Users/dubam/Documents/Repositorios/Figorifico/BLL/Report/ReportService.cs",
                "region": {
                  "startLine": 75,
                  "startColumn": 37,
                  "endLine": 75,
                  "endColumn": 62
                }
              }
            }
          ],
          "properties": {
            "warningLevel": 1
          }
        }
      ],
      "rules": {
        "CA1822": {
          "id": "CA1822",
          "shortDescription": "Mark members as static",
          "fullDescription": "Members that do not access instance data or call instance methods can be marked as static. After you mark the methods as static, the compiler will emit nonvirtual call sites to these members. This can give you a measurable performance gain for performance-sensitive code.",
          "defaultLevel": "note",
          "helpUri": "https://docs.microsoft.com/dotnet/fundamentals/code-analysis/quality-rules/ca1822",
          "properties": {
            "category": "Performance",
            "isEnabledByDefault": true,
            "tags": [
              "PortedFromFxCop",
              "Telemetry",
              "EnabledRuleInAggressiveMode"
            ]
          }
        },
        "S1168": {
          "id": "S1168",
          "shortDescription": "Empty arrays and collections should be returned instead of null",
          "fullDescription": "Returning null instead of an actual array, collection or map forces callers of the method to explicitly test for nullity, making them more complex and less readable.",
          "defaultLevel": "warning",
          "helpUri": "https://rules.sonarsource.com/csharp/RSPEC-1168",
          "properties": {
            "category": "Major Code Smell",
            "isEnabledByDefault": true,
            "tags": [
              "C#",
              "SonarWay",
              "MainSourceScope"
            ]
          }
        },
        "S2971": {
          "id": "S2971",
          "shortDescription": "\"IEnumerable\" LINQs should be simplified",
          "fullDescription": "In the interests of readability, code that can be simplified should be simplified. To that end, there are several ways IEnumerable language integrated queries (LINQ) can be simplified",
          "defaultLevel": "warning",
          "helpUri": "https://rules.sonarsource.com/csharp/RSPEC-2971",
          "properties": {
            "category": "Major Code Smell",
            "isEnabledByDefault": true,
            "tags": [
              "C#",
              "SonarWay",
              "MainSourceScope",
              "TestSourceScope"
            ]
          }
        },
        "S3267": {
          "id": "S3267",
          "shortDescription": "Loops should be simplified with \"LINQ\" expressions",
          "fullDescription": "When a loop is filtering, selecting or aggregating, those functions can be handled with a clearer, more concise LINQ expression instead.",
          "defaultLevel": "warning",
          "helpUri": "https://rules.sonarsource.com/csharp/RSPEC-3267",
          "properties": {
            "category": "Minor Code Smell",
            "isEnabledByDefault": true,
            "tags": [
              "C#",
              "SonarWay",
              "MainSourceScope"
            ]
          }
        },
        "S3776": {
          "id": "S3776",
          "shortDescription": "Cognitive Complexity of methods should not be too high",
          "fullDescription": "Cognitive Complexity is a measure of how hard the control flow of a method is to understand. Methods with high Cognitive Complexity will be difficult to maintain.",
          "defaultLevel": "warning",
          "helpUri": "https://rules.sonarsource.com/csharp/RSPEC-3776",
          "properties": {
            "category": "Critical Code Smell",
            "isEnabledByDefault": false,
            "tags": [
              "C#",
              "SonarWay",
              "MainSourceScope",
              "TestSourceScope"
            ]
          }
        }
      }
    }
  ]
}