{
  "$schema": "http://json.schemastore.org/sarif-1.0.0",
  "version": "1.0.0",
  "runs": [
    {
      "tool": {
        "name": "Compilador de Microsoft (R) Visual C#",
        "version": "4.0.0.0",
        "fileVersion": "4.0.0-6.21526.21 (c7d6f9fa)",
        "semanticVersion": "4.0.0",
        "language": "es-ES"
      },
      "results": [
        {
          "ruleId": "CS1998",
          "level": "warning",
          "message": "El método asincrónico carece de operadores \"await\" y se ejecutará de forma sincrónica. Puede usar el operador 'await' para esperar llamadas API que no sean de bloqueo o 'await Task.Run(...)' para hacer tareas enlazadas a la CPU en un subproceso en segundo plano.",
          "suppressionStates": [
            "suppressedInSource"
          ],
          "locations": [
            {
              "resultFile": {
                "uri": "file:///C:/Users/dubam/Documents/Repositorios/Figorifico/Presentation/obj/Debug/net5.0/Razor/Pages/_ViewImports.cshtml.g.cs",
                "region": {
                  "startLine": 26,
                  "startColumn": 67,
                  "endLine": 26,
                  "endColumn": 79
                }
              }
            }
          ],
          "properties": {
            "warningLevel": 1
          }
        },
        {
          "ruleId": "CS1998",
          "level": "warning",
          "message": "El método asincrónico carece de operadores \"await\" y se ejecutará de forma sincrónica. Puede usar el operador 'await' para esperar llamadas API que no sean de bloqueo o 'await Task.Run(...)' para hacer tareas enlazadas a la CPU en un subproceso en segundo plano.",
          "suppressionStates": [
            "suppressedInSource"
          ],
          "locations": [
            {
              "resultFile": {
                "uri": "file:///C:/Users/dubam/Documents/Repositorios/Figorifico/Presentation/obj/Debug/net5.0/Razor/Pages/Error.cshtml.g.cs",
                "region": {
                  "startLine": 27,
                  "startColumn": 67,
                  "endLine": 27,
                  "endColumn": 79
                }
              }
            }
          ],
          "properties": {
            "warningLevel": 1
          }
        }
      ],
      "rules": {
        "CS1998": {
          "id": "CS1998",
          "shortDescription": "El método asincrónico carece de operadores \"await\" y se ejecutará de forma sincrónica",
          "defaultLevel": "warning",
          "helpUri": "https://msdn.microsoft.com/query/roslyn.query?appId=roslyn&k=k(CS1998)",
          "properties": {
            "category": "Compiler",
            "isEnabledByDefault": true,
            "tags": [
              "Compiler",
              "Telemetry"
            ]
          }
        }
      }
    }
  ]
}